The tidyverse
…
tibbles

A core component of the tidyverse is the tibble. Tibbles are a modern rework of the standard data.frame, with some internal improvements to make code more reliable. Most notably, tibbles will return a more reasonable number of rows to the console.

Try executing counts in your console:

counts_tbl

## # A tibble: 38,828 x 13
##               ensgene    sample1   sample2   sample3   sample4    sample5
##                 <chr>      <dbl>     <dbl>     <dbl>     <dbl>      <dbl>
##  1 ENSMUSG00000000001 19.7848000 19.265000 20.889500 24.076700 23.7222000
##  2 ENSMUSG00000000003  0.0000000  0.000000  0.000000  0.000000  0.0000000
##  3 ENSMUSG00000000028  0.9377920  1.032290  0.892183  0.827891  0.8269540
##  4 ENSMUSG00000000031  0.0359631  0.000000  0.000000  0.000000  0.0000000
##  5 ENSMUSG00000000037  0.1514170  0.056033  0.146196  0.180883  0.0473238
##  6 ENSMUSG00000000049  0.2567330  0.258134  0.421286  2.191720  1.0730200
##  7 ENSMUSG00000000056  5.9998100  6.047990  6.020250  5.620120  6.4116300
##  8 ENSMUSG00000000058  5.2784700  3.971810  6.161450  7.045910  5.2136600
##  9 ENSMUSG00000000078 37.2141000 32.303000 31.249600  4.260570  3.5634100
## 10 ENSMUSG00000000085 25.4044000 22.950700 21.415600 16.825400 17.9712000
## # ... with 38,818 more rows, and 7 more variables: sample6 <dbl>,
## #   sample7 <dbl>, sample8 <dbl>, sample9 <dbl>, sample10 <dbl>,
## #   sample11 <dbl>, sample12 <dbl>
…
