…
Next, try returning the counts [tibble](http://tibble.tidyverse.org/).

``` r
counts_tbl
```

    ## # A tibble: 38,828 x 13
    ##               ensgene    sample1   sample2   sample3   sample4    sample5
    ##                 <chr>      <dbl>     <dbl>     <dbl>     <dbl>      <dbl>
    ##  1 ENSMUSG00000000001 19.7848000 19.265000 20.889500 24.076700 23.7222000
    ##  2 ENSMUSG00000000003  0.0000000  0.000000  0.000000  0.000000  0.0000000
    ##  3 ENSMUSG00000000028  0.9377920  1.032290  0.892183  0.827891  0.8269540
    ##  4 ENSMUSG00000000031  0.0359631  0.000000  0.000000  0.000000  0.0000000
    ##  5 ENSMUSG00000000037  0.1514170  0.056033  0.146196  0.180883  0.0473238
    ##  6 ENSMUSG00000000049  0.2567330  0.258134  0.421286  2.191720  1.0730200
    ##  7 ENSMUSG00000000056  5.9998100  6.047990  6.020250  5.620120  6.4116300
    ##  8 ENSMUSG00000000058  5.2784700  3.971810  6.161450  7.045910  5.2136600
    ##  9 ENSMUSG00000000078 37.2141000 32.303000 31.249600  4.260570  3.5634100
    ## 10 ENSMUSG00000000085 25.4044000 22.950700 21.415600 16.825400 17.9712000
    ## # ... with 38,818 more rows, and 7 more variables: sample6 <dbl>,
    ## #   sample7 <dbl>, sample8 <dbl>, sample9 <dbl>, sample10 <dbl>,
    ## #   sample11 <dbl>, sample12 <dbl>
…
First, we only need a few columns of interest from our results tibble. We can do this easily in [dplyr](http://dplyr.tidyverse.org/) with `select()`.

``` r
report <- results_tbl %>%
    select(symbol, baseMean, log2FoldChange, padj)
```

Conversely, you can remove columns you don't want with negative selection.

``` r
select(results_tbl, -c(lfcSE, stat, pvalue))
```

    ## # A tibble: 23,368 x 4
    ##         symbol    baseMean log2FoldChange         padj
    ##          <chr>       <dbl>          <dbl>        <dbl>
    ##  1 1/2-SBSRNA4  45.6520399    0.266586547 2.708964e-01
    ##  2        A1BG  61.0931017    0.208057615 3.638671e-01
    ##  3    A1BG-AS1 175.6658069   -0.051825739 7.837586e-01
    ##  4        A1CF   0.2376919    0.012557390           NA
    ##  5       A2LD1  89.6179845    0.343006364 7.652553e-02
    ##  6         A2M   5.8600841   -0.270449534 2.318666e-01
    ##  7       A2ML1   2.4240553    0.236041349           NA
    ##  8       A2MP1   1.3203237    0.079525469           NA
    ##  9      A4GALT  64.5409534    0.795049160 2.875565e-05
    ## 10       A4GNT   0.1912781    0.009458374           NA
    ## # ... with 23,358 more rows
…
`mutate()`
----------

`mutate()` enables you to create a new column from an existing column. Let's generate log10 calculations of our baseMeans for each gene.

``` r
report %>%
    mutate(log10BaseMean = log10(baseMean)) %>%
    select(symbol, baseMean, log10BaseMean)
```

    ## # A tibble: 4,909 x 3
    ##      symbol   baseMean log10BaseMean
    ##       <chr>      <dbl>         <dbl>
    ##  1    MOV10 21681.7998      4.336095
    ##  2     H1F0  7881.0811      3.896586
    ##  3    HSPA6   168.2522      2.225961
    ##  4 HIST1H1C  1741.3830      3.240894
    ##  5    TXNIP  5133.7486      3.710435
    ##  6    NEAT1 21973.7061      4.341903
    ##  7    KLF10  1694.2109      3.228967
    ##  8   INSIG1 11872.5106      4.074543
    ##  9    NR1D1   969.9119      2.986732
    ## 10    WDFY1  1422.7361      3.153124
    ## # ... with 4,899 more rows

`rename()`
----------

You can quickly rename an existing column with `rename()`. The syntax is `new_name` = `old_name`.

``` r
report %>%
    rename(gene = symbol)
```

    ## # A tibble: 4,909 x 4
    ##        gene   baseMean log2FoldChange          padj
    ##       <chr>      <dbl>          <dbl>         <dbl>
    ##  1    MOV10 21681.7998      4.7695983  0.000000e+00
    ##  2     H1F0  7881.0811      1.5250811 2.007733e-162
    ##  3    HSPA6   168.2522      4.4993734 1.969313e-134
    ##  4 HIST1H1C  1741.3830      1.4868361 5.116720e-101
    ##  5    TXNIP  5133.7486      1.3868320  4.882246e-90
    ##  6    NEAT1 21973.7061      0.9087853  2.269464e-83
    ##  7    KLF10  1694.2109      1.2093969  9.257431e-78
    ##  8   INSIG1 11872.5106      1.2260848  8.853278e-70
    ##  9    NR1D1   969.9119      1.5236259  1.376753e-64
    ## 10    WDFY1  1422.7361      1.0629160  1.298076e-61
    ## # ... with 4,899 more rows
…
